55,0,352,84
55,352,705,96
64,705,705,89
62,1058,352,90
60,1411,352,93
55,1764,1058,96
55,2823,352,102
55,3176,705,99
64,3529,705,90
62,3882,352,88
60,4235,352,94
57,4588,1058,102
57,5647,352,96
57,5999,705,97
65,6352,705,94
64,6705,352,95
62,7058,352,91
59,7411,1411,99
67,8823,1411,110